…
We can now use this function to iterate over each category and return all links. Because I’m interested in being able to filter my future directory by category, I’m passing two arguments into my function - the link as well as the category name - and this means that I have to use the map2() function.

stat_links_list <- map2(link_urls$links, link_urls$cat, get_stat_links)

Running this function returns a list of 8 elements, one for each category, and within each list we can find the category name, the link to the overall stat, and the partial url that we’re going to eventually use to gather data for all years.

## [[1]]
## # A tibble: 60 x 3
##    cat         link                                          partial      
##    <chr>       <chr>                                         <chr>        
##  1 off_the_tee https://www.pgatour.com/stats/stat.02674.html https://www.…
##  2 off_the_tee https://www.pgatour.com/stats/stat.02567.html https://www.…
##  3 off_the_tee https://www.pgatour.com/stats/stat.159.html   https://www.…
##  4 off_the_tee https://www.pgatour.com/stats/stat.101.html   https://www.…
##  5 off_the_tee https://www.pgatour.com/stats/stat.496.html   https://www.…
##  6 off_the_tee https://www.pgatour.com/stats/stat.495.html   https://www.…
##  7 off_the_tee https://www.pgatour.com/stats/stat.454.html   https://www.…
##  8 off_the_tee https://www.pgatour.com/stats/stat.455.html   https://www.…
##  9 off_the_tee https://www.pgatour.com/stats/stat.456.html   https://www.…
## 10 off_the_tee https://www.pgatour.com/stats/stat.457.html   https://www.…
## # ... with 50 more rows
## 
## [[2]]
## # A tibble: 100 x 3
##    cat                link                        partial                 
##    <chr>              <chr>                       <chr>                   
##  1 approach_the_green https://www.pgatour.com/st… https://www.pgatour.com…
##  2 approach_the_green https://www.pgatour.com/st… https://www.pgatour.com…
##  3 approach_the_green https://www.pgatour.com/st… https://www.pgatour.com…
##  4 approach_the_green https://www.pgatour.com/st… https://www.pgatour.com…
##  5 approach_the_green https://www.pgatour.com/st… https://www.pgatour.com…
##  6 approach_the_green https://www.pgatour.com/st… https://www.pgatour.com…
##  7 approach_the_green https://www.pgatour.com/st… https://www.pgatour.com…
##  8 approach_the_green https://www.pgatour.com/st… https://www.pgatour.com…
##  9 approach_the_green https://www.pgatour.com/st… https://www.pgatour.com…
## 10 approach_the_green https://www.pgatour.com/st… https://www.pgatour.com…
## # ... with 90 more rows
## 
## [[3]]
## # A tibble: 30 x 3
##    cat              link                                          partial 
##    <chr>            <chr>                                         <chr>   
##  1 around_the_green https://www.pgatour.com/stats/stat.02569.html https:/…
##  2 around_the_green https://www.pgatour.com/stats/stat.111.html   https:/…
##  3 around_the_green https://www.pgatour.com/stats/stat.370.html   https:/…
##  4 around_the_green https://www.pgatour.com/stats/stat.371.html   https:/…
##  5 around_the_green https://www.pgatour.com/stats/stat.372.html   https:/…
##  6 around_the_green https://www.pgatour.com/stats/stat.373.html   https:/…
##  7 around_the_green https://www.pgatour.com/stats/stat.130.html   https:/…
##  8 around_the_green https://www.pgatour.com/stats/stat.362.html   https:/…
##  9 around_the_green https://www.pgatour.com/stats/stat.363.html   https:/…
## 10 around_the_green https://www.pgatour.com/stats/stat.364.html   https:/…
## # ... with 20 more rows
## 
## [[4]]
## # A tibble: 95 x 3
##    cat     link                                          partial          
##    <chr>   <chr>                                         <chr>            
##  1 putting https://www.pgatour.com/stats/stat.02564.html https://www.pgat…
##  2 putting https://www.pgatour.com/stats/stat.413.html   https://www.pgat…
##  3 putting https://www.pgatour.com/stats/stat.414.html   https://www.pgat…
##  4 putting https://www.pgatour.com/stats/stat.415.html   https://www.pgat…
##  5 putting https://www.pgatour.com/stats/stat.416.html   https://www.pgat…
##  6 putting https://www.pgatour.com/stats/stat.417.html   https://www.pgat…
##  7 putting https://www.pgatour.com/stats/stat.418.html   https://www.pgat…
##  8 putting https://www.pgatour.com/stats/stat.420.html   https://www.pgat…
##  9 putting https://www.pgatour.com/stats/stat.421.html   https://www.pgat…
## 10 putting https://www.pgatour.com/stats/stat.422.html   https://www.pgat…
## # ... with 85 more rows
## 
## [[5]]
## # A tibble: 209 x 3
##    cat     link                                          partial          
##    <chr>   <chr>                                         <chr>            
##  1 scoring https://www.pgatour.com/stats/stat.02675.html https://www.pgat…
##  2 scoring https://www.pgatour.com/stats/stat.120.html   https://www.pgat…
##  3 scoring https://www.pgatour.com/stats/stat.108.html   https://www.pgat…
##  4 scoring https://www.pgatour.com/stats/stat.116.html   https://www.pgat…
##  5 scoring https://www.pgatour.com/stats/stat.02417.html https://www.pgat…
##  6 scoring https://www.pgatour.com/stats/stat.299.html   https://www.pgat…
##  7 scoring https://www.pgatour.com/stats/stat.152.html   https://www.pgat…
##  8 scoring https://www.pgatour.com/stats/stat.153.html   https://www.pgat…
##  9 scoring https://www.pgatour.com/stats/stat.112.html   https://www.pgat…
## 10 scoring https://www.pgatour.com/stats/stat.113.html   https://www.pgat…
## # ... with 199 more rows
## 
## [[6]]
## # A tibble: 21 x 3
##    cat     link                                        partial            
##    <chr>   <chr>                                       <chr>              
##  1 streaks https://www.pgatour.com/stats/stat.297.html https://www.pgatou…
##  2 streaks https://www.pgatour.com/stats/stat.298.html https://www.pgatou…
##  3 streaks https://www.pgatour.com/stats/stat.296.html https://www.pgatou…
##  4 streaks https://www.pgatour.com/stats/stat.295.html https://www.pgatou…
##  5 streaks https://www.pgatour.com/stats/stat.483.html https://www.pgatou…
##  6 streaks https://www.pgatour.com/stats/stat.294.html https://www.pgatou…
##  7 streaks https://www.pgatour.com/stats/stat.474.html https://www.pgatou…
##  8 streaks https://www.pgatour.com/stats/stat.475.html https://www.pgatou…
##  9 streaks https://www.pgatour.com/stats/stat.476.html https://www.pgatou…
## 10 streaks https://www.pgatour.com/stats/stat.477.html https://www.pgatou…
## # ... with 11 more rows
## 
## [[7]]
…
##    <chr>          <chr>                                         <chr>     
##  1 money_finishes https://www.pgatour.com/stats/stat.109.html   https://w…
##  2 money_finishes https://www.pgatour.com/stats/stat.110.html   https://w…
##  3 money_finishes https://www.pgatour.com/stats/stat.014.html   https://w…
##  4 money_finishes https://www.pgatour.com/stats/stat.139.html   https://w…
##  5 money_finishes https://www.pgatour.com/stats/stat.02444.html https://w…
##  6 money_finishes https://www.pgatour.com/stats/stat.154.html   https://w…
##  7 money_finishes https://www.pgatour.com/stats/stat.194.html   https://w…
##  8 money_finishes https://www.pgatour.com/stats/stat.02337.html https://w…
##  9 money_finishes https://www.pgatour.com/stats/stat.02447.html https://w…
## 10 money_finishes https://www.pgatour.com/stats/stat.138.html   https://w…
## 11 money_finishes https://www.pgatour.com/stats/stat.300.html   https://w…
## 
## [[8]]
## # A tibble: 34 x 3
##    cat             link                                          partial  
##    <chr>           <chr>                                         <chr>    
##  1 points_rankings https://www.pgatour.com/stats/stat.02394.html https://…
##  2 points_rankings https://www.pgatour.com/stats/stat.02395.html https://…
##  3 points_rankings https://www.pgatour.com/stats/stat.02562.html https://…
##  4 points_rankings https://www.pgatour.com/stats/stat.131.html   https://…
##  5 points_rankings https://www.pgatour.com/stats/stat.132.html   https://…
##  6 points_rankings https://www.pgatour.com/stats/stat.140.html   https://…
##  7 points_rankings https://www.pgatour.com/stats/stat.187.html   https://…
##  8 points_rankings https://www.pgatour.com/stats/stat.439.html   https://…
##  9 points_rankings https://www.pgatour.com/stats/stat.499.html   https://…
## 10 points_rankings https://www.pgatour.com/stats/stat.02396.html https://…
## # ... with 24 more rows
…
## # A tibble: 2 x 2
##   title            data             
##   <chr>            <list>           
## 1 SG: Tee-to-Green <tibble [39 × 3]>
## 2 SG: Off-the-Tee  <tibble [39 × 3]>

Strokes Gained is a relatively new statistic that was only first calculated and collected in 2004. But we are trying to pull data since 1980. What is returned for early years for which no data is actually available?

sg2 %>% filter(title == "SG: Tee-to-Green") %>% unnest()

## # A tibble: 39 x 4
##    title            cat          year data            
##    <chr>            <chr>       <dbl> <list>          
##  1 SG: Tee-to-Green off_the_tee  1980 <tibble [0 × 3]>
##  2 SG: Tee-to-Green off_the_tee  1981 <tibble [0 × 3]>
##  3 SG: Tee-to-Green off_the_tee  1982 <tibble [0 × 3]>
##  4 SG: Tee-to-Green off_the_tee  1983 <tibble [0 × 3]>
##  5 SG: Tee-to-Green off_the_tee  1984 <tibble [0 × 3]>
##  6 SG: Tee-to-Green off_the_tee  1985 <tibble [0 × 3]>
##  7 SG: Tee-to-Green off_the_tee  1986 <tibble [0 × 3]>
##  8 SG: Tee-to-Green off_the_tee  1987 <tibble [0 × 3]>
##  9 SG: Tee-to-Green off_the_tee  1988 <tibble [0 × 3]>
## 10 SG: Tee-to-Green off_the_tee  1989 <tibble [0 × 3]>
## # ... with 29 more rows
…
