…
relig_income %>%
  pivot_longer(-religion, names_to = "income", values_to = "count")

## # A tibble: 180 x 3
##    religion income             count
##    <chr>    <chr>              <dbl>
##  1 Agnostic <$10k                 27
##  2 Agnostic $10-20k               34
##  3 Agnostic $20-30k               60
##  4 Agnostic $30-40k               81
##  5 Agnostic $40-50k               76
##  6 Agnostic $50-75k              137
##  7 Agnostic $75-100k             122
##  8 Agnostic $100-150k            109
##  9 Agnostic >150k                 84
## 10 Agnostic Don't know/refused    96
## # … with 170 more rows
…
billboard %>%
  pivot_longer(
    cols = starts_with("wk"),
    names_to = "week",
    names_prefix = "wk",
    values_to = "rank",
    values_drop_na = TRUE
  )

## # A tibble: 5,307 x 5
##    artist  track                   date.entered week   rank
##    <chr>   <chr>                   <date>       <chr> <dbl>
##  1 2 Pac   Baby Don't Cry (Keep... 2000-02-26   1        87
##  2 2 Pac   Baby Don't Cry (Keep... 2000-02-26   2        82
##  3 2 Pac   Baby Don't Cry (Keep... 2000-02-26   3        72
##  4 2 Pac   Baby Don't Cry (Keep... 2000-02-26   4        77
##  5 2 Pac   Baby Don't Cry (Keep... 2000-02-26   5        87
##  6 2 Pac   Baby Don't Cry (Keep... 2000-02-26   6        94
##  7 2 Pac   Baby Don't Cry (Keep... 2000-02-26   7        99
##  8 2Ge+her The Hardest Part Of ... 2000-09-02   1        91
##  9 2Ge+her The Hardest Part Of ... 2000-09-02   2        87
## 10 2Ge+her The Hardest Part Of ... 2000-09-02   3        92
## # … with 5,297 more rows

billboard %>% 
  pivot_longer(
    cols = starts_with("wk"), 
    names_to = "week", 
    names_prefix = "wk",
    names_ptypes = list(week = integer()),
    values_to = "rank",
    values_drop_na = TRUE,
  )

## # A tibble: 5,307 x 5
##    artist  track                   date.entered  week  rank
##    <chr>   <chr>                   <date>       <int> <dbl>
##  1 2 Pac   Baby Don't Cry (Keep... 2000-02-26       1    87
##  2 2 Pac   Baby Don't Cry (Keep... 2000-02-26       2    82
##  3 2 Pac   Baby Don't Cry (Keep... 2000-02-26       3    72
##  4 2 Pac   Baby Don't Cry (Keep... 2000-02-26       4    77
##  5 2 Pac   Baby Don't Cry (Keep... 2000-02-26       5    87
##  6 2 Pac   Baby Don't Cry (Keep... 2000-02-26       6    94
##  7 2 Pac   Baby Don't Cry (Keep... 2000-02-26       7    99
##  8 2Ge+her The Hardest Part Of ... 2000-09-02       1    91
##  9 2Ge+her The Hardest Part Of ... 2000-09-02       2    87
## 10 2Ge+her The Hardest Part Of ... 2000-09-02       3    92
## # … with 5,297 more rows
…
who %>% pivot_longer(
  cols = new_sp_m014:newrel_f65,
  names_to = c("diagnosis", "gender", "age"), 
  names_pattern = "new_?(.*)_(.)(.*)",
  names_ptypes = list(
    gender = factor(levels = c("f", "m")),
    age = factor(
      levels = c("014", "1524", "2534", "3544", "4554", "5564", "65"), 
      ordered = TRUE
    )
  ),
  values_to = "count",
)

## # A tibble: 405,440 x 8
##    country     iso2  iso3   year diagnosis gender age   count
##    <chr>       <chr> <chr> <int> <chr>     <fct>  <ord> <int>
##  1 Afghanistan AF    AFG    1980 sp        m      014      NA
##  2 Afghanistan AF    AFG    1980 sp        m      1524     NA
##  3 Afghanistan AF    AFG    1980 sp        m      2534     NA
##  4 Afghanistan AF    AFG    1980 sp        m      3544     NA
##  5 Afghanistan AF    AFG    1980 sp        m      4554     NA
##  6 Afghanistan AF    AFG    1980 sp        m      5564     NA
##  7 Afghanistan AF    AFG    1980 sp        m      65       NA
##  8 Afghanistan AF    AFG    1980 sp        f      014      NA
##  9 Afghanistan AF    AFG    1980 sp        f      1524     NA
## 10 Afghanistan AF    AFG    1980 sp        f      2534     NA
## # … with 405,430 more rows
…
pivot_wider()

Data capturing anytime a fish passes through a station. A row is only added if a fish was seen, so often times there will be NAs. If we widen the data so that each station is a column, the NAs are apparent. The NAs can be filled within the function using the values_fill command.

fish_encounters

## # A tibble: 114 x 3
##    fish  station  seen
##    <fct> <fct>   <int>
##  1 4842  Release     1
##  2 4842  I80_1       1
##  3 4842  Lisbon      1
##  4 4842  Rstr        1
##  5 4842  Base_TD     1
##  6 4842  BCE         1
##  7 4842  BCW         1
##  8 4842  BCE2        1
##  9 4842  BCW2        1
## 10 4842  MAE         1
## # … with 104 more rows
…
Aggregation

This is actually sort of bonkers. We can spread data and aggregate it, all at the same time. The warpbreaks dataset captures 9 experiments for 2 different types of wool and 3 levels of tension. There is no unique way of spreading the data.

warpbreaks <- warpbreaks %>% as_tibble() %>% select(wool, tension, breaks)
warpbreaks

## # A tibble: 54 x 3
##    wool  tension breaks
##    <fct> <fct>    <dbl>
##  1 A     L           26
##  2 A     L           30
##  3 A     L           54
##  4 A     L           25
##  5 A     L           70
##  6 A     L           52
##  7 A     L           51
##  8 A     L           26
##  9 A     L           67
## 10 A     M           18
## # … with 44 more rows
…
Generate column name from multiple variables

Data with a country and production levels of specific products. What if wanted a column for each product and country?

production <- expand_grid(
    product = c("A", "B"), 
    country = c("AI", "EI"), 
    year = 2000:2014
  ) %>%
  filter((product == "A" & country == "AI") | product == "B") %>% 
  mutate(production = rnorm(nrow(.)))
production

## # A tibble: 45 x 4
##    product country  year production
##    <chr>   <chr>   <int>      <dbl>
##  1 A       AI       2000      0.709
##  2 A       AI       2001     -2.30 
##  3 A       AI       2002     -0.247
##  4 A       AI       2003     -0.768
##  5 A       AI       2004     -0.724
##  6 A       AI       2005      1.64 
##  7 A       AI       2006      1.98 
##  8 A       AI       2007      0.603
##  9 A       AI       2008      2.37 
## 10 A       AI       2009     -1.10 
## # … with 35 more rows
…
Tidy Census data

This looks very much like a standard use case of spread().

us_rent_income

## # A tibble: 104 x 5
##    GEOID NAME       variable estimate   moe
##    <chr> <chr>      <chr>       <dbl> <dbl>
##  1 01    Alabama    income      24476   136
##  2 01    Alabama    rent          747     3
##  3 02    Alaska     income      32940   508
##  4 02    Alaska     rent         1200    13
##  5 04    Arizona    income      27517   148
##  6 04    Arizona    rent          972     4
##  7 05    Arkansas   income      23789   165
##  8 05    Arkansas   rent          709     5
##  9 06    California income      29454   109
## 10 06    California rent         1358     3
## # … with 94 more rows

us_rent_income %>% 
  pivot_wider(names_from = variable, values_from = c(estimate, moe))

## # A tibble: 52 x 6
##    GEOID NAME                 estimate_income estimate_rent moe_income moe_rent
##    <chr> <chr>                          <dbl>         <dbl>      <dbl>    <dbl>
##  1 01    Alabama                        24476           747        136        3
##  2 02    Alaska                         32940          1200        508       13
##  3 04    Arizona                        27517           972        148        4
##  4 05    Arkansas                       23789           709        165        5
##  5 06    California                     29454          1358        109        3
##  6 08    Colorado                       32401          1125        109        5
##  7 09    Connecticut                    35326          1123        195        5
##  8 10    Delaware                       31560          1076        247       10
##  9 11    District of Columbia           43198          1424        681       17
## 10 12    Florida                        25952          1077         70        3
## # … with 42 more rows
…
Longer, then Wider

World Bank data

The goal is to produce a tidy dataset where each variable is a column.

world_bank_pop

## # A tibble: 1,056 x 20
##    country indicator `2000` `2001` `2002` `2003`  `2004`  `2005`   `2006`
##    <chr>   <chr>      <dbl>  <dbl>  <dbl>  <dbl>   <dbl>   <dbl>    <dbl>
##  1 ABW     SP.URB.T… 4.24e4 4.30e4 4.37e4 4.42e4 4.47e+4 4.49e+4  4.49e+4
##  2 ABW     SP.URB.G… 1.18e0 1.41e0 1.43e0 1.31e0 9.51e-1 4.91e-1 -1.78e-2
##  3 ABW     SP.POP.T… 9.09e4 9.29e4 9.50e4 9.70e4 9.87e+4 1.00e+5  1.01e+5
##  4 ABW     SP.POP.G… 2.06e0 2.23e0 2.23e0 2.11e0 1.76e+0 1.30e+0  7.98e-1
##  5 AFG     SP.URB.T… 4.44e6 4.65e6 4.89e6 5.16e6 5.43e+6 5.69e+6  5.93e+6
##  6 AFG     SP.URB.G… 3.91e0 4.66e0 5.13e0 5.23e0 5.12e+0 4.77e+0  4.12e+0
##  7 AFG     SP.POP.T… 2.01e7 2.10e7 2.20e7 2.31e7 2.41e+7 2.51e+7  2.59e+7
##  8 AFG     SP.POP.G… 3.49e0 4.25e0 4.72e0 4.82e0 4.47e+0 3.87e+0  3.23e+0
##  9 AGO     SP.URB.T… 8.23e6 8.71e6 9.22e6 9.77e6 1.03e+7 1.09e+7  1.15e+7
## 10 AGO     SP.URB.G… 5.44e0 5.59e0 5.70e0 5.76e0 5.75e+0 5.69e+0  4.92e+0
## # … with 1,046 more rows, and 11 more variables: `2007` <dbl>, `2008` <dbl>,
## #   `2009` <dbl>, `2010` <dbl>, `2011` <dbl>, `2012` <dbl>, `2013` <dbl>,
## #   `2014` <dbl>, `2015` <dbl>, `2016` <dbl>, `2017` <dbl>

First, use pivot_longer() to start.

pop2 <- world_bank_pop %>% 
  pivot_longer(`2000`:`2017`, names_to = "year", values_to = "value")
pop2

## # A tibble: 19,008 x 4
##    country indicator   year  value
##    <chr>   <chr>       <chr> <dbl>
##  1 ABW     SP.URB.TOTL 2000  42444
##  2 ABW     SP.URB.TOTL 2001  43048
##  3 ABW     SP.URB.TOTL 2002  43670
##  4 ABW     SP.URB.TOTL 2003  44246
##  5 ABW     SP.URB.TOTL 2004  44669
##  6 ABW     SP.URB.TOTL 2005  44889
##  7 ABW     SP.URB.TOTL 2006  44881
##  8 ABW     SP.URB.TOTL 2007  44686
##  9 ABW     SP.URB.TOTL 2008  44375
## 10 ABW     SP.URB.TOTL 2009  44052
## # … with 18,998 more rows

But we are still left with multiple “indicator” variables per country. So now we have to separate.

pop3 <- pop2 %>% 
  separate(indicator, c(NA, "area", "variable"))
pop3

## # A tibble: 19,008 x 5
##    country area  variable year  value
##    <chr>   <chr> <chr>    <chr> <dbl>
##  1 ABW     URB   TOTL     2000  42444
##  2 ABW     URB   TOTL     2001  43048
##  3 ABW     URB   TOTL     2002  43670
##  4 ABW     URB   TOTL     2003  44246
##  5 ABW     URB   TOTL     2004  44669
##  6 ABW     URB   TOTL     2005  44889
##  7 ABW     URB   TOTL     2006  44881
##  8 ABW     URB   TOTL     2007  44686
##  9 ABW     URB   TOTL     2008  44375
## 10 ABW     URB   TOTL     2009  44052
## # … with 18,998 more rows

Now we can widen the data.

pop3 %>% 
  pivot_wider(names_from = variable, values_from = value)

## # A tibble: 9,504 x 5
##    country area  year   TOTL    GROW
##    <chr>   <chr> <chr> <dbl>   <dbl>
##  1 ABW     URB   2000  42444  1.18  
##  2 ABW     URB   2001  43048  1.41  
##  3 ABW     URB   2002  43670  1.43  
##  4 ABW     URB   2003  44246  1.31  
##  5 ABW     URB   2004  44669  0.951 
##  6 ABW     URB   2005  44889  0.491 
##  7 ABW     URB   2006  44881 -0.0178
##  8 ABW     URB   2007  44686 -0.435 
##  9 ABW     URB   2008  44375 -0.698 
## 10 ABW     URB   2009  44052 -0.731 
## # … with 9,494 more rows
…
