…
## 18 Capt…     NA  NA   unknown    unknown    unknown           NA female
## 19 Padm…    165  45   brown      light      brown             46 female
## # … with 5 more variables: homeworld <chr>, species <chr>, films <list>,
## #   vehicles <list>, starships <list>
## 
## [[2]]
## # A tibble: 1 x 13
##   name  height  mass hair_color skin_color eye_color birth_year gender
##   <chr>  <int> <dbl> <chr>      <chr>      <chr>          <dbl> <chr> 
## 1 Jabb…    175  1358 <NA>       green-tan… orange           600 herma…
## # … with 5 more variables: homeworld <chr>, species <chr>, films <list>,
## #   vehicles <list>, starships <list>
## 
## [[3]]
## # A tibble: 62 x 13
##    name  height  mass hair_color skin_color eye_color birth_year gender
##    <chr>  <int> <dbl> <chr>      <chr>      <chr>          <dbl> <chr> 
##  1 Luke…    172    77 blond      fair       blue            19   male  
##  2 Dart…    202   136 none       white      yellow          41.9 male  
##  3 Owen…    178   120 brown, gr… light      blue            52   male  
##  4 Bigg…    183    84 black      light      brown           24   male  
##  5 Obi-…    182    77 auburn, w… fair       blue-gray       57   male  
##  6 Anak…    188    84 blond      fair       blue            41.9 male  
##  7 Wilh…    180    NA auburn, g… fair       blue            64   male  
##  8 Chew…    228   112 brown      unknown    blue           200   male  
##  9 Han …    180    80 brown      fair       brown           29   male  
## 10 Gree…    173    74 <NA>       green      black           44   male  
## # … with 52 more rows, and 5 more variables: homeworld <chr>,
## #   species <chr>, films <list>, vehicles <list>, starships <list>
## 
## [[4]]
…
