…
We’ll start with an easy example using a table from a Wikipedia page, in this case we’ll grab the most watched television broadcasts in the United States. What we’re going to do is get to the page in Google Chrome and then right click to inspect the element. From there, find the table within the code and then right click and select “Copy Xpath”. This is what we’re going to direct rvest to scrape.

pacman::p_load(tidyverse, rvest)

url <- "https://en.wikipedia.org/wiki/List_of_most_watched_television_broadcasts_in_the_United_States"

wiki_tv <- url %>%
  read_html() %>%
  html_nodes(xpath = '//*[@id="mw-content-text"]/div/table[1]') %>%
  html_table() %>%
  flatten_df()

wiki_tv

## # A tibble: 21 x 5
##      No. Show              `Viewership (millions)` Date            Network
##    <int> <chr>             <chr>                   <chr>           <chr>  
##  1     1 Super Bowl XLIX   114.4                   February 1, 20… NBC    
##  2     2 Super Bowl XLVIII 112.2                   February 2, 20… Fox    
##  3     3 Super Bowl 50     111.9                   February 7, 20… CBS    
##  4     4 Super Bowl LI     111.3                   February 5, 20… Fox    
##  5     5 Super Bowl XLVI   111.3                   February 5, 20… NBC    
##  6     6 Super Bowl XLV    111.0                   February 6, 20… Fox    
##  7     7 Super Bowl XLVII  108.7                   February 3, 20… CBS    
##  8     8 Super Bowl XLIV   106.5                   February 7, 20… CBS    
##  9     9 M*A*S*H (Finale)  105.9[4]                February 28, 1… CBS    
## 10    10 Super Bowl LII    103.4                   February 4, 20… NBC    
## # ... with 11 more rows
…
